[
  [
    0.973641353430365,
    -0.09878708144892766,
    -0.20558119424959753,
    0.9994122836647902
  ],
  [
    0.10189204309867647,
    0.9947850789976873,
    0.004545124502602097,
    -0.008869613450397829
  ],
  [
    0.20406010497759072,
    -0.025372409076980705,
    0.9786295082482269,
    0.03311219136767085
  ]
]