[
  [
    -719.5459,
    0.0,
    104.55908203125,
    0.0
  ],
  [
    -0.0,
    -719.5459,
    -169.70382690429688,
    -0.0
  ],
  [
    -724.522780046078,
    85.63081919499388,
    -20.90148618307856,
    725.5485724490765
  ],
  [
    106.44155393142097,
    714.6371185734389,
    139.421643050325,
    -104.6569976178553
  ]
]