[
  [
    0.9665165966763455,
    -0.10222678544079172,
    -0.23536217344258212,
    0.9991633515602057
  ],
  [
    0.10762832848107023,
    0.9941390391329731,
    0.01018399627547102,
    0.026089614865051236
  ],
  [
    0.23294164775227447,
    -0.035174638736029766,
    0.9718543787688791,
    0.031494902685507364
  ]
]