[
  0.6767740263485673,
  0.5652804382703772,
  0.23184274088550927,
  0.17800186577210544,
  -0.1281573504886924,
  -0.1826199901492567,
  -0.16049396974138963,
  -0.22170106991534166,
  -0.23931863752866983,
  -0.7896923716908383,
  5.510124847330784,
  0.38226354360784126,
  0.3499813339706316,
  0.1663623424608236,
  0.14046203906964033,
  -0.027100644286535167,
  -0.0671227340773057,
  -0.09576189289693346,
  -0.16786024436818084,
  -0.16786024436818084,
  -0.19785198913269836,
  -0.3077960528574512,
  -0.36164004175556796,
  -0.5403203053841239,
  -0.5994921817917513,
  5.196897594201021,
  3.945592885239153,
  3.2359699640647523,
  0.5607356126003589,
  0.5607356126003589,
  0.3444030147267618,
  0.3503216274734501,
  0.05759763891543229,
  -0.028100845389979295,
  -0.1669335960962066,
  -0.4384536653104465,
  -0.4384536653104465,
  0.6044141054713692,
  -0.032597485158119055,
  -0.17260148746743398,
  -0.33222428182884867,
  0.733885416389393,
  0.058365195836817846,
  -0.021899500572375507,
  -0.021899500572375507,
  -0.24301594926822034,
  0.23509409875079795,
  0.14678226759161836,
  0.12389928184237496,
  -0.10509374788189252
]