[
  0.14520579518015633,
  0.12789990444519084,
  0.05371683813597355,
  0.03964971601355576,
  -0.034461554983291974,
  -0.044880187570812,
  -0.04596316463252278,
  -0.049308671091968306,
  -0.05572030028596982,
  -0.1558086654117452,
  0.2648452762152288,
  0.1063751322501825,
  0.10059829356911759,
  0.03811558470958751,
  0.03195266182353946,
  -0.006407052187590235,
  -0.019204116913143405,
  -0.026683925723248694,
  -0.047919371145967865,
  -0.047919371145967865,
  -0.05676445620101523,
  -0.07892960955380404,
  -0.08065300103844109,
  -0.10893875792861159,
  -0.13005317806968095,
  0.254007861371368,
  0.19516623241340275,
  0.1613752685383054,
  0.11945609813693989,
  0.11945609813693989,
  0.09856722989939255,
  0.09930584385316747,
  0.016638355675289804,
  -0.008028360273379947,
  -0.04629121292585074,
  -0.11285861796188792,
  -0.11285861796188792,
  0.14877419472910017,
  -0.008915514200264233,
  -0.04068231980542894,
  -0.08417661056089486,
  0.15220110057026687,
  0.01694490448668246,
  -0.006264187430977012,
  -0.006264187430977012,
  -0.06451476868088415,
  0.06669299270073227,
  0.0409253162279929,
  0.03409334113218009,
  -0.03005987561201766
]